146  git switch main
  147  git branch homework-03
  148  git switch homework-03
  149  ls -la
  150  cd ../class3_homework/
  151  ls -la
  152  nano 484993.txt
  153  git remote add upstream git@gitlab.com:redhat/research/mastering-git.git
  154  git switch main
  155  git pull upstream main
  156  git switch homework-03
  157  git status
  158  git add 484993.txt
  159  git commit -m "Add <UCO>.txt file"
  160  git remote
  161  git push origin homework-03
  162  history

